{
    "BASELINE_SERVER_IMAGE": "gcr.io/skia-public/gold-baseline-server:2023-03-20T21_32_50Z-lovisolo-3e57248-clean",
    "DIFFCALCULATOR_IMAGE":  "gcr.io/skia-public/gold-diffcalculator:2023-03-20T21_34_47Z-lovisolo-3e57248-clean",
    "FRONTEND_IMAGE":        "gcr.io/skia-public/gold-frontend:2023-03-20T21_30_42Z-lovisolo-3e57248-clean",
    "GITILESFOLLOWER_IMAGE": "gcr.io/skia-public/gold-gitilesfollower:2023-03-20T21_34_22Z-lovisolo-3e57248-clean",
    "INGESTION_IMAGE":       "gcr.io/skia-public/gold-ingestion:2023-03-20T21_33_44Z-lovisolo-3e57248-clean",
    "PERIODICTASKS_IMAGE":   "gcr.io/skia-public/gold-periodictasks:2023-03-20T21_33_18Z-lovisolo-3e57248-clean",
}
